Présentation de {afribat}
…
df <- afribat::afribats_sf

ago <- read_sf("data/gadm41_AGO.gpkg")

ago_df <- st_filter(x=df,y=ago,.predicate = st_intersects)
ago_df

Simple feature collection with 350 features and 11 fields
Geometry type: POINT
Dimension:     XY
Bounding box:  xmin: 12.13 ymin: -17.93 xmax: 23.38 ymax: -5.13
Geodetic CRS:  WGS 84
# A tibble: 350 × 12
   family       genus species museum date        year country location reference
 * <chr>        <chr> <chr>   <chr>  <date>     <dbl> <chr>   <chr>    <chr>    
 1 Emballonuri… Cole… afra    <NA>   NA            NA Angola  Benguela Crawford…
 2 Emballonuri… Cole… afra    IICA5… NA            NA Angola  Novo Re… Monadjem…
 3 Emballonuri… Sacc… peli    <NA>   NA            NA Angola  Lago Ca… Crawford…
 4 Emballonuri… Taph… maurit… IICA45 1960-12-28  1960 Angola  Luanda   Monadjem…
 5 Emballonuri… Taph… maurit… <NA>   NA            NA Angola  Benguela Crawford…
 6 Emballonuri… Taph… maurit… <NA>   NA            NA Angola  Caiundo  Crawford…
 7 Emballonuri… Taph… maurit… <NA>   NA            NA Angola  Catumbe… Crawford…
 8 Emballonuri… Taph… maurit… <NA>   NA            NA Angola  Dundo    Crawford…
 9 Emballonuri… Taph… maurit… <NA>   NA            NA Angola  Duque d… Crawford…
10 Emballonuri… Taph… maurit… <NA>   NA            NA Angola  Humbe    Crawford…
# ℹ 340 more rows
# ℹ 3 more variables: holotype <chr>, checked <chr>, geometry <POINT [°]>
…
